Lab 1: Introduction to Quarto Documents – lab_1
…
Going forward you should refrain from typing your code directly in the console, as this makes it very difficult to remember and reproduce the output you want to reference. Potentially the most important feature of Quarto documents is that they allow for us to nest our R code within a written report. In an Quarto document, R code appears in a gray box, which we call “code chunks.” The Quarto document knows that the gray box contains R code because it begins with three tick marks (```), followed by two curly braces that contain a lowercase letter r ({r}).

Instead of typing our R code into the console, we encourage you to type any code you produce (final correct answer, or anything you’re just trying out) in the R code chunk associated with each problem. You can execute the R code you type in these code chunks similar to how you typed code into the console and pressed enter/return. Within the code chunk there are two ways to execute a line of R code: (1) place your cursor on the line on code and press Ctrl-Enter or Cmd-Enter at the same time, or (2) place your cursor on the line and press the “Run” button in the upper right hand corner of the Quarto document. Alternatively, if you wanted to run all of the R code in a given code chunk, you can click on the “Play” button in the upper right hand corner of the code chunk (green sideways triangle).

If at any point you need to start over and run all of the code chunks before a specific code chunk, you click on the “Fastforward” button in the upper right hand corner of that code chunk (gray upside down triangle with a bar below). This will run every code chunk that occurred before that code chunk, but will not execute the R code included in that code chunk.

Open the file “Lab_1_report.qmd” and we will get started!

Dr. Arbuthnot’s Baptism Records

To get started, let’s take a peek at the data.

arbuthnot

# A tibble: 82 × 3
    year  boys girls
   <int> <int> <int>
 1  1629  5218  4683
 2  1630  4858  4457
 3  1631  4422  4102
 4  1632  4994  4590
 5  1633  5158  4839
 6  1634  5035  4820
 7  1635  5106  4928
 8  1636  4917  4605
 9  1637  4703  4457
10  1638  5359  4952
# ℹ 72 more rows
…
